Getting Started With the COVID-19 Data: Classification
…
cases

## # A tibble: 3,142 x 259
##    county_fips_code county_name state state_fips_code date       confirmed_cases
##    <chr>            <chr>       <chr> <chr>           <date>               <dbl>
##  1 50009            Essex Coun VT    50              2021-01-19             111
##  2 50007            Chittenden VT    50              2021-01-19            3636
##  3 10001            Kent County DE    10              2021-01-19           11548
##  4 44009            Washington RI    44              2021-01-19            5521
##  5 33001            Belknap Co NH    33              2021-01-19            2496
##  6 44005            Newport Co RI    44              2021-01-19            3578
##  7 50015            Lamoille C VT    50              2021-01-19             312
##  8 09013            Tolland Co CT    09              2021-01-19            6255
##  9 50001            Addison Co VT    50              2021-01-19             527
## 10 50005            Caledonia  VT    50              2021-01-19             307
## #  with 3,132 more rows, and 253 more variables: deaths <dbl>, geo_id <chr>,
## #   nonfamily_households <dbl>, family_households <dbl>,
## #   median_year_structure_built <dbl>, rent_burden_not_computed <dbl>,
## #   rent_over_50_percent <dbl>, rent_40_to_50_percent <dbl>,
## #   rent_35_to_40_percent <dbl>, rent_30_to_35_percent <dbl>,
## #   rent_25_to_30_percent <dbl>, rent_20_to_25_percent <dbl>,
## #   rent_15_to_20_percent <dbl>, rent_10_to_15_percent <dbl>,
## #   rent_under_10_percent <dbl>, total_pop <dbl>, male_pop <dbl>,
## #   female_pop <dbl>, median_age <dbl>, white_pop <dbl>, black_pop <dbl>,
…
Calculate rates (per 1000 people) and select important variables. You need more variables.

cases <- cases %>% filter(confirmed_cases > 0) 

cases <- cases %>% 
  arrange(desc(confirmed_cases)) #%>%    
  #select(county_name, state, confirmed_cases, deaths, total_pop, median_income, median_age)
cases <- cases %>% mutate(
  cases_per_10000 = confirmed_cases/total_pop*10000, 
  deaths_per_10000 = deaths/total_pop*10000, 
  death_per_case = deaths/confirmed_cases)

cases

## # A tibble: 3,139 x 262
##    county_fips_code county_name state state_fips_code date       confirmed_cases
##    <fct>            <fct>       <fct> <fct>           <date>               <dbl>
##  1 06037            Los Angele CA    06              2021-01-19         1002614
##  2 17031            Cook County IL    17              2021-01-19          435888
##  3 04013            Maricopa C AZ    04              2021-01-19          425844
##  4 12086            Miami-Dade FL    12              2021-01-19          347965
##  5 48201            Harris Cou TX    48              2021-01-19          286356
##  6 06071            San Bernar CA    06              2021-01-19          252808
##  7 06065            Riverside  CA    06              2021-01-19          244151
##  8 48113            Dallas Cou TX    48              2021-01-19          234625
##  9 06073            San Diego  CA    06              2021-01-19          214335
## 10 06059            Orange Cou CA    06              2021-01-19          213866
## #  with 3,129 more rows, and 256 more variables: deaths <dbl>, geo_id <fct>,
## #   nonfamily_households <dbl>, family_households <dbl>,
## #   median_year_structure_built <dbl>, rent_burden_not_computed <dbl>,
## #   rent_over_50_percent <dbl>, rent_40_to_50_percent <dbl>,
## #   rent_35_to_40_percent <dbl>, rent_30_to_35_percent <dbl>,
## #   rent_25_to_30_percent <dbl>, rent_20_to_25_percent <dbl>,
## #   rent_15_to_20_percent <dbl>, rent_10_to_15_percent <dbl>,
## #   rent_under_10_percent <dbl>, total_pop <dbl>, male_pop <dbl>,
## #   female_pop <dbl>, median_age <dbl>, white_pop <dbl>, black_pop <dbl>,
…
cases_sel

## # A tibble: 3,139 x 25
##    county_name   state total_pop nonfamily_househ median_year_struc female_pop
##    <fct>         <fct>     <dbl>             <dbl>              <dbl>      <dbl>
##  1 Los Angeles  CA     10105722            0.108                1963      0.507
##  2 Cook County   IL      5238541            0.148                1958      0.515
##  3 Maricopa Cou AZ      4155501            0.124                1989      0.505
##  4 Miami-Dade C FL      2702602            0.101                1977      0.515
##  5 Harris County TX      4525519            0.110                1983      0.503
##  6 San Bernardi CA      2121220            0.0707               1981      0.503
##  7 Riverside Co CA      2355002            0.0804               1988      0.502
##  8 Dallas County TX      2552213            0.124                1979      0.507
##  9 San Diego Co CA      3283665            0.111                1978      0.497
## 10 Orange County CA      3155816            0.0906               1975      0.506
## #  with 3,129 more rows, and 19 more variables: median_age <dbl>,
## #   white_pop <dbl>, black_pop <dbl>, asian_pop <dbl>, hispanic_pop <dbl>,
## #   amerindian_pop <dbl>, commuters_by_public_transportation <dbl>,
## #   households <dbl>, median_income <dbl>, housing_units <dbl>,
## #   vacant_housing_units <dbl>, percent_income_spent_on_rent <dbl>,
## #   employed_pop <dbl>, unemployed_pop <dbl>, in_school <dbl>,
## #   in_undergrad_college <dbl>, cases_per_10000 <dbl>, deaths_per_10000 <dbl>,
## #   death_per_case <dbl>
…
cases_sel <- cases_sel %>% mutate(bad = as.factor(deaths_per_10000 > 10))

Check if the class variable is very imbalanced.

cases_sel %>% pull(bad) %>% table()

## .
## FALSE  TRUE 
##  1275  1864

cases_sel %>% group_by(state) %>% 
  summarize(bad_pct = sum(bad == TRUE)/n()) %>%
  arrange(desc(bad_pct))

## # A tibble: 51 x 2
##    state bad_pct
##    <fct>   <dbl>
##  1 DC      1    
##  2 NJ      1    
##  3 MS      0.988
##  4 AZ      0.933
##  5 LA      0.922
##  6 PA      0.881
##  7 SD      0.879
##  8 IN      0.870
##  9 MA      0.857
## 10 AR      0.853
## #  with 41 more rows
…
Select Features

Plot a map for test data

See: https://eriqande.github.io/rep-res-web/lectures/making-maps-with-R.html

counties <- as_tibble(map_data("county"))
counties <- counties %>% 
  rename(c(county = subregion, state = region)) %>%
  mutate(state = state.abb[match(state, tolower(state.name))]) %>%
  select(state, county, long, lat, group)
counties  

## # A tibble: 87,949 x 5
##    state county   long   lat group
##    <chr> <chr>   <dbl> <dbl> <dbl>
##  1 AL    autauga -86.5  32.3     1
##  2 AL    autauga -86.5  32.4     1
##  3 AL    autauga -86.5  32.4     1
##  4 AL    autauga -86.6  32.4     1
##  5 AL    autauga -86.6  32.4     1
##  6 AL    autauga -86.6  32.4     1
##  7 AL    autauga -86.6  32.4     1
##  8 AL    autauga -86.6  32.4     1
##  9 AL    autauga -86.6  32.4     1
## 10 AL    autauga -86.6  32.4     1
## #  with 87,939 more rows
…
